…
```r
gapminder
```

```
## # A tibble: 1,704 × 6
##    country     continent  year lifeExp      pop gdpPercap
##    <fct>       <fct>     <int>   <dbl>    <int>     <dbl>
##  1 Afghanistan Asia       1952    28.8  8425333      779.
##  2 Afghanistan Asia       1957    30.3  9240934      821.
##  3 Afghanistan Asia       1962    32.0 10267083      853.
##  4 Afghanistan Asia       1967    34.0 11537966      836.
##  5 Afghanistan Asia       1972    36.1 13079460      740.
##  6 Afghanistan Asia       1977    38.4 14880372      786.
##  7 Afghanistan Asia       1982    39.9 12881816      978.
##  8 Afghanistan Asia       1987    40.8 13867957      852.
##  9 Afghanistan Asia       1992    41.7 16317921      649.
## 10 Afghanistan Asia       1997    41.8 22227415      635.
## # ℹ 1,694 more rows
```
…
**7. Which countries have had the largest population growth since 1952?**

```r
gapminder %>% 
  group_by(country) %>% 
  summarise(growth = ((pop[year == 2007] - pop[year == 1952]) / pop[year == 1952])) %>% 
  arrange(desc= TRUE)
```

```
## # A tibble: 142 × 2
##    country     growth
##    <fct>        <dbl>
##  1 Afghanistan  2.79 
##  2 Albania      1.81 
##  3 Algeria      2.59 
##  4 Angola       1.93 
##  5 Argentina    1.25 
##  6 Australia    1.35 
##  7 Austria      0.184
##  8 Bahrain      4.88 
##  9 Bangladesh   2.21 
## 10 Belgium      0.190
## # ℹ 132 more rows
```
…
