…
```r
colleges
```

```
## # A tibble: 341 × 10
##    instnm      city  stabbr zip   adm_rate sat_avg pcip26 costt4_a c150_4_pooled
##    <chr>       <chr> <chr>  <chr>    <dbl>   <dbl>  <dbl>    <dbl>         <dbl>
##  1 Grossmont … El C… CA     9202…       NA      NA 0.0016     7956        NA    
##  2 College of… Visa… CA     9327…       NA      NA 0.0066     8109        NA    
##  3 College of… San … CA     9440…       NA      NA 0.0038     8278        NA    
##  4 Ventura Co… Vent… CA     9300…       NA      NA 0.0035     8407        NA    
##  5 Oxnard Col… Oxna… CA     9303…       NA      NA 0.0085     8516        NA    
##  6 Moorpark C… Moor… CA     9302…       NA      NA 0.0151     8577        NA    
##  7 Skyline Co… San … CA     9406…       NA      NA 0          8580         0.233
##  8 Glendale C… Glen… CA     9120…       NA      NA 0.002      9181        NA    
##  9 Citrus Col… Glen… CA     9174…       NA      NA 0.0021     9281        NA    
## 10 Fresno Cit… Fres… CA     93741       NA      NA 0.0324     9370        NA    
## # ℹ 331 more rows
## # ℹ 1 more variable: pftftug1_ef <dbl>
```
…
