…
```r
fisheries$country <- as_factor(fisheries$country)
fisheries$fao_major_fishing_area <- as_factor(fisheries$fao_major_fishing_area)  
fisheries$isscaap_group_number <- as_factor(fisheries$isscaap_group_number)
fisheries$asfis_species_number <- as_factor(fisheries$asfis_species_number)
```


```r
fisheries
```

```
## # A tibble: 17,692 × 71
##    country common_name               isscaap_group_number isscaap_taxonomic_gr…¹
##    <fct>   <chr>                     <fct>                <chr>                 
##  1 Albania Angelsharks, sand devils… 38                   Sharks, rays, chimaer…
##  2 Albania Atlantic bonito           36                   Tunas, bonitos, billf…
##  3 Albania Barracudas nei            37                   Miscellaneous pelagic…
##  4 Albania Blue and red shrimp       45                   Shrimps, prawns       
##  5 Albania Blue whiting(=Poutassou)  32                   Cods, hakes, haddocks 
##  6 Albania Bluefish                  37                   Miscellaneous pelagic…
##  7 Albania Bogue                     33                   Miscellaneous coastal…
##  8 Albania Caramote prawn            45                   Shrimps, prawns       
##  9 Albania Catsharks, nursehounds n… 38                   Sharks, rays, chimaer…
## 10 Albania Common cuttlefish         57                   Squids, cuttlefishes,…
## # ℹ 17,682 more rows
## # ℹ abbreviated name: ¹​isscaap_taxonomic_group
## # ℹ 67 more variables: asfis_species_number <fct>, asfis_species_name <chr>,
## #   fao_major_fishing_area <fct>, measure <chr>, x1950 <chr>, x1951 <chr>,
## #   x1952 <chr>, x1953 <chr>, x1954 <chr>, x1955 <chr>, x1956 <chr>,
## #   x1957 <chr>, x1958 <chr>, x1959 <chr>, x1960 <chr>, x1961 <chr>,
## #   x1962 <chr>, x1963 <chr>, x1964 <chr>, x1965 <chr>, x1966 <chr>, …
```
…
fisheries_tidy$catch <- as.numeric(fisheries_tidy$catch)
```

3. How many countries are represented in the data? Provide a count and list their names.

```r
fisheries_tidy %>% 
count(country)
```

```
## # A tibble: 203 × 2
##    country                 n
##    <fct>               <int>
##  1 Albania               934
##  2 Algeria              1561
##  3 American Samoa        556
##  4 Angola               2119
##  5 Anguilla              129
##  6 Antigua and Barbuda   356
##  7 Argentina            3403
##  8 Aruba                 172
##  9 Australia            8183
## 10 Bahamas               423
## # ℹ 193 more rows
```
##203
4. Refocus the data only to include country, isscaap_taxonomic_group, asfis_species_name, asfis_species_number, year, catch.

```r
fisheries_tidy %>% 
  select(country,isscaap_group_number, asfis_species_number, asfis_species_name, year, catch)
```

```
## # A tibble: 376,771 × 6
##    country isscaap_group_number asfis_species_number asfis_species_name  year
##    <fct>   <fct>                <fct>                <chr>              <dbl>
##  1 Albania 38                   10903XXXXX           Squatinidae         1995
##  2 Albania 38                   10903XXXXX           Squatinidae         1996
##  3 Albania 38                   10903XXXXX           Squatinidae         1997
##  4 Albania 38                   10903XXXXX           Squatinidae         1998
##  5 Albania 38                   10903XXXXX           Squatinidae         1999
##  6 Albania 38                   10903XXXXX           Squatinidae         2000
##  7 Albania 38                   10903XXXXX           Squatinidae         2001
##  8 Albania 38                   10903XXXXX           Squatinidae         2002
##  9 Albania 38                   10903XXXXX           Squatinidae         2003
## 10 Albania 38                   10903XXXXX           Squatinidae         2004
## # ℹ 376,761 more rows
## # ℹ 1 more variable: catch <dbl>
```

5. Based on the asfis_species_number, how many distinct fish species were caught as part of these data?

```r
fisheries_tidy %>% 
  count(asfis_species_number)
```

```
## # A tibble: 1,551 × 2
##    asfis_species_number     n
##    <fct>                <int>
##  1 10903XXXXX             138
##  2 1750100101            1923
##  3 17710001XX            2675
##  4 2280203101             130
##  5 1480403301             915
##  6 1702021301            1450
##  7 1703926101            1105
##  8 2280100117             305
##  9 10801003XX             103
## 10 3210200202             699
## # ℹ 1,541 more rows
```
…
```r
fisheries_tidy %>% 
  filter(year == "2008"|year == "2009"|year == "2010"|year == "2011"|year == "2012") %>% 
  group_by(asfis_species_name) %>%
  summarise(catch_species = sum(catch, na.rm = TRUE)) %>% 
  arrange(desc(catch_species))
```

```
## # A tibble: 1,472 × 2
##    asfis_species_name    catch_species
##    <chr>                         <dbl>
##  1 Osteichthyes                 107808
##  2 Theragra chalcogramma         41075
##  3 Engraulis ringens             35523
##  4 Katsuwonus pelamis            32153
##  5 Trichiurus lepturus           30400
##  6 Clupea harengus               28527
##  7 Thunnus albacares             20119
##  8 Scomber japonicus             14723
##  9 Gadus morhua                  13253
## 10 Thunnus alalunga              12019
## # ℹ 1,462 more rows
```

10. Use the data to do at least one analysis of your choice.

```r
fisheries_tidy %>% 
  filter(year == "2012") %>% 
  filter(country == "Estonia") %>% 
  group_by(asfis_species_name) %>% 
  summarise(most_popular_fish_estonia = sum(catch, na.rm = TRUE)) %>% 
  arrange(desc(most_popular_fish_estonia))
```

```
## # A tibble: 40 × 2
##    asfis_species_name  most_popular_fish_estonia
##    <chr>                                   <dbl>
##  1 Raja spp                                  161
##  2 Sprattus sprattus                          97
##  3 Genypterus blacodes                        90
##  4 Rutilus rutilus                            78
##  5 Macrourus berglax                          72
##  6 Cyprinidae                                 67
##  7 Gadus morhua                               60
##  8 Nototheniidae                              57
##  9 Vimba vimba                                53
## 10 Clupea harengus                            47
## # ℹ 30 more rows
```
…
